…
yrbss

## # A tibble: 13,583 x 13
##      age gender grade hispanic race    height weight helmet_12m text_while_driv~
##    <int> <chr>  <chr> <chr>    <chr>    <dbl>  <dbl> <chr>      <chr>           
##  1    14 female 9     not      Black ~  NA      NA   never      0               
##  2    14 female 9     not      Black ~  NA      NA   never      <NA>            
##  3    15 female 9     hispanic Native~   1.73   84.4 never      30              
##  4    15 female 9     not      Black ~   1.6    55.8 never      0               
##  5    15 female 9     not      Black ~   1.5    46.7 did not r~ did not drive   
##  6    15 female 9     not      Black ~   1.57   67.1 did not r~ did not drive   
##  7    15 female 9     not      Black ~   1.65  132.  did not r~ <NA>            
##  8    14 male   9     not      Black ~   1.88   71.2 never      <NA>            
##  9    15 male   9     not      Black ~   1.75   63.5 never      <NA>            
## 10    15 male   10    not      Black ~   1.37   97.1 did not r~ <NA>            
## # ... with 13,573 more rows, and 4 more variables: physically_active_7d <int>,
## #   hours_tv_per_school_day <chr>, strength_training_7d <int>,
## #   school_night_hours_sleep <chr>
…
  # generate 1000 reps, of type "permute"
  generate(reps = 1000, type = "permute") %>%
  
  # calculate statistic of difference, namely "diff in means"
  calculate(stat = "diff in means", order = c("Yes", "No"))

## Warning: Removed 1219 rows containing missing values.

null_dist

## Response: weight (numeric)
## Explanatory: physical_3plus (factor)
## Null Hypothesis: independence
## # A tibble: 1,000 x 2
##    replicate     stat
##        <int>    <dbl>
##  1         1  0.184  
##  2         2  0.0903 
##  3         3  0.587  
##  4         4 -0.324  
##  5         5 -0.0746 
##  6         6 -0.622  
##  7         7  0.604  
##  8         8  0.0249 
##  9         9 -0.172  
## 10        10 -0.00564
## # ... with 990 more rows
…
