…
na = "***" option informs R how missing observations in the spreadsheet are coded. When looking at the spreadsheet, you can see that missing data is coded as “***“. It is best to specify this here, as otherwise some of the data is not recognized as numeric data.

Once the data is loaded, notice that there is a object titled weather in the Environment panel. If you cannot see the panel (usually on the top-right), go to Tools > Global Options > Pane Layout and tick the checkbox next to Environment. Click on the weather object, and the dataframe will pop up on a seperate tab. Inspect the dataframe.

For each month and year, the dataframe shows the deviation of temperature from the normal (expected). Further the dataframe is in wide format.

You have two objectives in this section:

Select the year and the twelve month variables from the weather dataset. We do not need the others (J-D, D-N, DJF, etc.) for this assignment. Hint: use select() function.

weather %>% 
  select(1:13)

## # A tibble: 142 x 13
##     Year   Jan   Feb   Mar   Apr   May   Jun   Jul   Aug   Sep   Oct   Nov   Dec
##    <dbl> <dbl> <dbl> <dbl> <dbl> <dbl> <dbl> <dbl> <dbl> <dbl> <dbl> <dbl> <dbl>
##  1  1880 -0.35 -0.51 -0.23 -0.3  -0.06 -0.16 -0.18 -0.26 -0.23 -0.32 -0.43 -0.4 
##  2  1881 -0.3  -0.21 -0.03  0.01  0.04 -0.32  0.08 -0.04 -0.26 -0.43 -0.36 -0.22
##  3  1882  0.26  0.21  0.02 -0.32 -0.24 -0.3  -0.28 -0.15 -0.24 -0.53 -0.33 -0.69
##  4  1883 -0.58 -0.66 -0.16 -0.3  -0.25 -0.11 -0.05 -0.22 -0.34 -0.16 -0.44 -0.15
##  5  1884 -0.16 -0.11 -0.64 -0.59 -0.36 -0.41 -0.44 -0.51 -0.44 -0.44 -0.57 -0.47
##  6  1885 -1.01 -0.45 -0.23 -0.48 -0.59 -0.44 -0.34 -0.41 -0.4  -0.37 -0.38 -0.11
##  7  1886 -0.74 -0.83 -0.72 -0.37 -0.34 -0.37 -0.14 -0.43 -0.33 -0.31 -0.39 -0.22
##  8  1887 -1.08 -0.7  -0.44 -0.38 -0.25 -0.2  -0.24 -0.54 -0.21 -0.49 -0.27 -0.43
##  9  1888 -0.48 -0.61 -0.64 -0.22 -0.15 -0.03 -0.01 -0.21 -0.2  -0.04 -0.01 -0.24
## 10  1889 -0.28  0.29 -0.02  0.16 -0.03 -0.07 -0.09 -0.21 -0.31 -0.42 -0.62 -0.55
## # ... with 132 more rows
…
